[api-updater (non-obsolete-error-filter)] 3/13/2021 5:20:44 PM : Starting F:/Utility/Unity/2020.2.6f1/Editor/Data/Tools/ScriptUpdater/APIUpdater.NonObsoleteApiUpdaterDetector.exe
[api-updater (non-obsolete-error-filter)] 
----------------------------------
jit/startup time      : 1410.6271ms
moved types parse time: 88ms
candidates parse time : 1ms
C# parse time         : 1093ms
candidates check time : 74ms
console write time    : 11ms

[api-updater (non-obsolete-error-filter)] 3/17/2021 1:35:48 PM : Starting F:/Utility/Unity/2020.2.6f1/Editor/Data/Tools/ScriptUpdater/APIUpdater.NonObsoleteApiUpdaterDetector.exe
[api-updater (non-obsolete-error-filter)] 
----------------------------------
jit/startup time      : 1282.8174ms
moved types parse time: 85ms
candidates parse time : 1ms
C# parse time         : 1003ms
candidates check time : 51ms
console write time    : 13ms

[api-updater (non-obsolete-error-filter)] 3/17/2021 2:05:36 PM : Starting F:/Utility/Unity/2020.2.6f1/Editor/Data/Tools/ScriptUpdater/APIUpdater.NonObsoleteApiUpdaterDetector.exe
[api-updater (non-obsolete-error-filter)] 
----------------------------------
jit/startup time      : 78.0018ms
moved types parse time: 56ms
candidates parse time : 1ms
C# parse time         : 304ms
candidates check time : 139ms
console write time    : 0ms

[api-updater (non-obsolete-error-filter)] 3/23/2021 1:55:29 PM : Starting F:/Utility/Unity/2020.2.6f1/Editor/Data/Tools/ScriptUpdater/APIUpdater.NonObsoleteApiUpdaterDetector.exe
[api-updater (non-obsolete-error-filter)] 
----------------------------------
jit/startup time      : 1293.8378ms
moved types parse time: 79ms
candidates parse time : 1ms
C# parse time         : 959ms
candidates check time : 39ms
console write time    : 17ms

[api-updater (non-obsolete-error-filter)] 3/23/2021 1:56:35 PM : Starting F:/Utility/Unity/2020.2.6f1/Editor/Data/Tools/ScriptUpdater/APIUpdater.NonObsoleteApiUpdaterDetector.exe
[api-updater (non-obsolete-error-filter)] 
----------------------------------
jit/startup time      : 94.9967ms
moved types parse time: 68ms
candidates parse time : 2ms
C# parse time         : 207ms
candidates check time : 34ms
console write time    : 0ms

[api-updater (non-obsolete-error-filter)] 3/23/2021 1:59:10 PM : Starting F:/Utility/Unity/2020.2.6f1/Editor/Data/Tools/ScriptUpdater/APIUpdater.NonObsoleteApiUpdaterDetector.exe
[api-updater (non-obsolete-error-filter)] 
----------------------------------
jit/startup time      : 77.6894ms
moved types parse time: 55ms
candidates parse time : 1ms
C# parse time         : 231ms
candidates check time : 32ms
console write time    : 0ms

[api-updater (non-obsolete-error-filter)] 3/23/2021 2:00:26 PM : Starting F:/Utility/Unity/2020.2.6f1/Editor/Data/Tools/ScriptUpdater/APIUpdater.NonObsoleteApiUpdaterDetector.exe
[api-updater (non-obsolete-error-filter)] 
----------------------------------
jit/startup time      : 99.9975ms
moved types parse time: 66ms
candidates parse time : 2ms
C# parse time         : 310ms
candidates check time : 51ms
console write time    : 1ms

[api-updater (non-obsolete-error-filter)] 3/31/2021 4:40:13 PM : Starting F:/Utility/Unity/2020.2.6f1/Editor/Data/Tools/ScriptUpdater/APIUpdater.NonObsoleteApiUpdaterDetector.exe
[api-updater (non-obsolete-error-filter)] 
----------------------------------
jit/startup time      : 1755.4771ms
moved types parse time: 107ms
candidates parse time : 1ms
C# parse time         : 1145ms
candidates check time : 73ms
console write time    : 14ms

